# 1. whole CYP2D6 deletion (nsv38883980)
nsv38883980_cyp2d6_del	chr22	42126499	42130881 
# 2. deletion of fragment between CYP2D6  and CYP2D7 (breakpoint in intron8) "wide pink"
wide_pink_cyp2d6_del	chr22	42126753	42140457
# 3. deletion of fragment between CYP2D6  and CYP2D7 (breakpoint in intron1) "narrow pink"
narrow_pink_cyp2d6_del	chr22	42130810	42144483
# 4. deletion between REP6 and REP7 (removes whole CYP2D6 gene)
between_rep_cyp2d6_del	chr22	42123846	42135998
